## Title: Auc:Util:SimpleAuction
## Notes: Creates a simplified "Post" frame within the main Auction House window for those who want a bit more utility and information when creating auctions.
##
## Interface: 80100
## Dependancies: Auc-Advanced
##
## Version: <%version%> (<%codename%>)
## Revision: $Id$
## Author: Norganna's AddOns
## X-Part-Of: Auctioneer
## X-Category: Auction House
## X-Max-Interface: 80100
## X-URL: http://auctioneeraddon.com/
## X-Feedback: http://forums.norganna.org
##
Embed.xml
